row_id,subject_id,hadm_id,icustay_id,startdate,enddate,drug_type,drug,drug_name_poe,drug_name_generic,formulary_drug_cd,gsn,ndc,prod_strength,dose_val_rx,dose_unit_rx,form_val_disp,form_unit_disp,route
32600,42458,159647,,2146-07-21 00:00:00,2146-07-22 00:00:00,MAIN,Pneumococcal Vac Polyvalent,Pneumococcal Vac Polyvalent,PNEUMOcoccal Vac Polyvalent,PNEU25I,048548,00006494300,25mcg/0.5mL Vial,0.5,mL,1,VIAL,IM
32601,42458,159647,,2146-07-21 00:00:00,2146-07-22 00:00:00,MAIN,Bisacodyl,Bisacodyl,Bisacodyl,BISA5,002947,00536338101,5 mg Tab,10,mg,2,TAB,PO
32602,42458,159647,,2146-07-21 00:00:00,2146-07-22 00:00:00,MAIN,Bisacodyl,Bisacodyl,Bisacodyl (Rectal),BISA10R,002944,00574705050,10mg Suppository,10,mg,1,SUPP,PR
